proj3/p4.vcd
$date
	Thu Nov 18 15:30:44 2021
$end
$version
	QuestaSim Version 10.6b
$end
$timescale
	10ps
$end
$scope module top $end
$scope module s1_0 $end
$var wire 1 ! clk $end
$var wire 1 " rst $end
$var wire 1 # out $end
$var wire 1 $ \W[2]  $end
$var wire 1 % n4 $end
$var wire 1 & n9 $end
$var wire 1 ' Q [0] $end
$var wire 1 ( Q [1] $end
$var wire 1 ) Q [2] $end
$var wire 1 * Q [3] $end
$upscope $end
$upscope $end
$enddefinitions $end
#0
1!
1"
x#
x$
x%
x&
x*
x)
x(
x'
1!
1"
#9
0%
#50
0)
0(
0'
0*
#60
1#
#65
0&
#76
1$
#5000
0!
#10000
0"
1!
#10008
1%
#10057
x'
#10075
x$
#15000
0!
#20000
1!
#20057
x(
#25000
0!
#30000
1!
#30057
x)
#30075
x&
#30082
x#
#35000
0!
#40000
1!
#40057
x*
