proj3/transcript
# vsim -c top 
# Start time: 19:36:21 on Nov 28,2021
# ** Note: (vsim-3813) Design is being optimized due to module recompilation...
# //  Questa Sim-64
# //  Version 10.6b linux_x86_64 May 25 2017
# //
# //  Copyright 1991-2017 Mentor Graphics Corporation
# //  All Rights Reserved.
# //
# //  QuestaSim and its associated documentation contain trade
# //  secrets and commercial or financial information that are the property of
# //  Mentor Graphics Corporation and are privileged, confidential,
# //  and exempt from disclosure under the Freedom of Information Act,
# //  5 U.S.C. Section 552. Furthermore, this information
# //  is prohibited from disclosure under the Trade Secrets Act,
# //  18 U.S.C. Section 1905.
# //
# Loading sv_std.std
# Loading work.top(fast)
#                     5 result=xxxxx, in_A=0000, in_B=0000
#                    10 result=00000, in_A=0001, in_B=0000
#                    15 result=00001, in_A=0010, in_B=0000
#                    20 result=00010, in_A=0011, in_B=0000
#                    25 result=00011, in_A=0000, in_B=0000
#                    30 result=00000, in_A=0000, in_B=0001
#                    35 result=00001, in_A=0000, in_B=0010
#                    40 result=00010, in_A=0000, in_B=0011
#                    45 result=00011, in_A=0000, in_B=0000
#                    50 result=00000, in_A=0001, in_B=0100
#                    55 result=01100, in_A=0010, in_B=1000
#                    60 result=11011, in_A=0011, in_B=1100
#                    65 result=01111, in_A=0100, in_B=0000
#                    70 result=00100, in_A=1000, in_B=0001
#                    75 result=11000, in_A=1100, in_B=0010
#                    80 result=01110, in_A=1000, in_B=0011
# ** Note: $finish    : prob3_tb.sv(44)
#    Time: 90 ns  Iteration: 0  Instance: /top
# End time: 19:36:22 on Nov 28,2021, Elapsed time: 0:00:01
# Errors: 0, Warnings: 0
