proj3/transcript
# vsim -c top 
# Start time: 13:37:33 on Nov 18,2021
# Loading sv_std.std
# Loading work.top
# Loading work.FSM_A
# Loading work.FSM_B
# Loading work.FSM_C
# ** Warning: (vsim-8315) No condition is true in the unique/priority if/case statement.
#    Time: 0 ps  Iteration: 1  Process: /top/modelC/out_logic/#implicit#unique__122 File: prob2.sv Line: 122
# ** Warning: (vsim-8315) No condition is true in the unique/priority if/case statement.
#    Time: 0 ps  Iteration: 1  Process: /top/modelC/ns_logic/#implicit#unique__110 File: prob2.sv Line: 110
# ** Warning: (vsim-8315) No condition is true in the unique/priority if/case statement.
#    Time: 0 ps  Iteration: 1  Process: /top/modelB/out_logic/#implicit#unique__74 File: prob2.sv Line: 74
# ** Warning: (vsim-8315) No condition is true in the unique/priority if/case statement.
#    Time: 0 ps  Iteration: 1  Process: /top/modelB/ns_logic/#implicit#unique__62 File: prob2.sv Line: 62
# ** Warning: (vsim-8315) No condition is true in the unique/priority if/case statement.
#    Time: 0 ps  Iteration: 1  Process: /top/modelA/out_logic/#implicit#unique__27 File: prob2.sv Line: 27
# ** Warning: (vsim-8315) No condition is true in the unique/priority if/case statement.
#    Time: 0 ps  Iteration: 1  Process: /top/modelA/ns_logic/#implicit#unique__15 File: prob2.sv Line: 15
# 
# Resetting FSM.
#                  150 Trace: 0000000	Input: x	ModelA State: SA   OutA: 0	ModelB State: SA   OutB: 0	ModelC State: SA   OutC: 0
# ** Warning: (vsim-8315) No condition is true in the unique/priority if/case statement.
#    Time: 200 ps  Iteration: 2  Process: /top/modelC/ns_logic/#implicit#unique__110 File: prob2.sv Line: 110
# ** Warning: (vsim-8315) No condition is true in the unique/priority if/case statement.
#    Time: 200 ps  Iteration: 2  Process: /top/modelC/out_logic/#implicit#unique__122 File: prob2.sv Line: 122
# ** Warning: (vsim-8315) No condition is true in the unique/priority if/case statement.
#    Time: 200 ps  Iteration: 2  Process: /top/modelB/ns_logic/#implicit#unique__62 File: prob2.sv Line: 62
# ** Warning: (vsim-8315) No condition is true in the unique/priority if/case statement.
#    Time: 200 ps  Iteration: 2  Process: /top/modelB/out_logic/#implicit#unique__74 File: prob2.sv Line: 74
# ** Warning: (vsim-8315) No condition is true in the unique/priority if/case statement.
#    Time: 200 ps  Iteration: 2  Process: /top/modelA/ns_logic/#implicit#unique__15 File: prob2.sv Line: 15
# ** Warning: (vsim-8315) No condition is true in the unique/priority if/case statement.
#    Time: 200 ps  Iteration: 2  Process: /top/modelA/out_logic/#implicit#unique__27 File: prob2.sv Line: 27
# ** Warning: (vsim-8315) No condition is true in the unique/priority if/case statement.
#    Time: 250 ps  Iteration: 2  Process: /top/modelA/ns_logic/#implicit#unique__15 File: prob2.sv Line: 15
# ** Warning: (vsim-8315) No condition is true in the unique/priority if/case statement.
#    Time: 250 ps  Iteration: 2  Process: /top/modelB/ns_logic/#implicit#unique__62 File: prob2.sv Line: 62
# ** Warning: (vsim-8315) No condition is true in the unique/priority if/case statement.
#    Time: 250 ps  Iteration: 2  Process: /top/modelC/ns_logic/#implicit#unique__110 File: prob2.sv Line: 110
#                  350 Trace: 0000000	Input: 0	ModelA State:    OutA: 0	ModelB State:    OutB: 0	ModelC State:    OutC: 0
#                  550 Trace: 0000000	Input: 0	ModelA State:    OutA: 0	ModelB State:    OutB: 0	ModelC State:    OutC: 0
#                  750 Trace: 0000000	Input: 0	ModelA State:    OutA: 0	ModelB State:    OutB: 0	ModelC State:    OutC: 0
#                  950 Trace: 0000000	Input: 0	ModelA State:    OutA: 0	ModelB State:    OutB: 0	ModelC State:    OutC: 0
#                 1150 Trace: 0000000	Input: 0	ModelA State:    OutA: 0	ModelB State:    OutB: 0	ModelC State:    OutC: 0
#                 1350 Trace: 0000000	Input: 0	ModelA State:    OutA: 0	ModelB State:    OutB: 0	ModelC State:    OutC: 0
#                 1550 Trace: 0000000	Input: 0	ModelA State:    OutA: 0	ModelB State:    OutB: 0	ModelC State:    OutC: 0
# 
# Resetting FSM.
#                 1750 Trace: 0000001	Input: 0	ModelA State: SA   OutA: 0	ModelB State: SA   OutB: 0	ModelC State: SA   OutC: 0
#                 1950 Trace: 0000001	Input: 1	ModelA State: SF   OutA: 1	ModelB State: SF   OutB: 1	ModelC State: SF   OutC: 1
#                 2150 Trace: 0000001	Input: 0	ModelA State: SD   OutA: 1	ModelB State: SD   OutB: 1	ModelC State: SD   OutC: 1
#                 2350 Trace: 0000001	Input: 0	ModelA State: SC   OutA: 0	ModelB State: SC   OutB: 0	ModelC State: SC   OutC: 0
#                 2550 Trace: 0000001	Input: 0	ModelA State: SD   OutA: 1	ModelB State: SD   OutB: 1	ModelC State: SD   OutC: 1
#                 2750 Trace: 0000001	Input: 0	ModelA State: SC   OutA: 0	ModelB State: SC   OutB: 0	ModelC State: SC   OutC: 0
#                 2950 Trace: 0000001	Input: 0	ModelA State: SD   OutA: 1	ModelB State: SD   OutB: 1	ModelC State: SD   OutC: 1
#                 3150 Trace: 0000001	Input: 0	ModelA State: SC   OutA: 0	ModelB State: SC   OutB: 0	ModelC State: SC   OutC: 0
# 
# Resetting FSM.
#                 3350 Trace: 0000010	Input: 0	ModelA State: SA   OutA: 0	ModelB State: SA   OutB: 0	ModelC State: SA   OutC: 0
#                 3550 Trace: 0000010	Input: 0	ModelA State: SB   OutA: 1	ModelB State: SB   OutB: 1	ModelC State: SB   OutC: 1
#                 3750 Trace: 0000010	Input: 1	ModelA State: SE   OutA: 0	ModelB State: SE   OutB: 0	ModelC State: SE   OutC: 0
#                 3950 Trace: 0000010	Input: 0	ModelA State: SD   OutA: 1	ModelB State: SD   OutB: 1	ModelC State: SD   OutC: 1
#                 4150 Trace: 0000010	Input: 0	ModelA State: SC   OutA: 0	ModelB State: SC   OutB: 0	ModelC State: SC   OutC: 0
#                 4350 Trace: 0000010	Input: 0	ModelA State: SD   OutA: 1	ModelB State: SD   OutB: 1	ModelC State: SD   OutC: 1
#                 4550 Trace: 0000010	Input: 0	ModelA State: SC   OutA: 0	ModelB State: SC   OutB: 0	ModelC State: SC   OutC: 0
#                 4750 Trace: 0000010	Input: 0	ModelA State: SD   OutA: 1	ModelB State: SD   OutB: 1	ModelC State: SD   OutC: 1
# 
# Resetting FSM.
#                 4950 Trace: 0000011	Input: 0	ModelA State: SA   OutA: 0	ModelB State: SA   OutB: 0	ModelC State: SA   OutC: 0
#                 5150 Trace: 0000011	Input: 1	ModelA State: SF   OutA: 1	ModelB State: SF   OutB: 1	ModelC State: SF   OutC: 1
#                 5350 Trace: 0000011	Input: 1	ModelA State: SA   OutA: 0	ModelB State: SA   OutB: 0	ModelC State: SA   OutC: 0
#                 5550 Trace: 0000011	Input: 0	ModelA State: SG   OutA: 0	ModelB State: SG   OutB: 0	ModelC State: SG   OutC: 0
#                 5750 Trace: 0000011	Input: 0	ModelA State: SB   OutA: 1	ModelB State: SB   OutB: 1	ModelC State: SB   OutC: 1
#                 5950 Trace: 0000011	Input: 0	ModelA State: SG   OutA: 0	ModelB State: SG   OutB: 0	ModelC State: SG   OutC: 0
#                 6150 Trace: 0000011	Input: 0	ModelA State: SB   OutA: 1	ModelB State: SB   OutB: 1	ModelC State: SB   OutC: 1
#                 6350 Trace: 0000011	Input: 0	ModelA State: SG   OutA: 0	ModelB State: SG   OutB: 0	ModelC State: SG   OutC: 0
# 
# Resetting FSM.
#                 6550 Trace: 0000100	Input: 0	ModelA State: SA   OutA: 0	ModelB State: SA   OutB: 0	ModelC State: SA   OutC: 0
#                 6750 Trace: 0000100	Input: 0	ModelA State: SB   OutA: 1	ModelB State: SB   OutB: 1	ModelC State: SB   OutC: 1
#                 6950 Trace: 0000100	Input: 0	ModelA State: SG   OutA: 0	ModelB State: SG   OutB: 0	ModelC State: SG   OutC: 0
#                 7150 Trace: 0000100	Input: 1	ModelA State: SF   OutA: 1	ModelB State: SF   OutB: 1	ModelC State: SF   OutC: 1
#                 7350 Trace: 0000100	Input: 0	ModelA State: SD   OutA: 1	ModelB State: SD   OutB: 1	ModelC State: SD   OutC: 1
#                 7550 Trace: 0000100	Input: 0	ModelA State: SC   OutA: 0	ModelB State: SC   OutB: 0	ModelC State: SC   OutC: 0
#                 7750 Trace: 0000100	Input: 0	ModelA State: SD   OutA: 1	ModelB State: SD   OutB: 1	ModelC State: SD   OutC: 1
#                 7950 Trace: 0000100	Input: 0	ModelA State: SC   OutA: 0	ModelB State: SC   OutB: 0	ModelC State: SC   OutC: 0
# 
# Resetting FSM.
#                 8150 Trace: 0000101	Input: 0	ModelA State: SA   OutA: 0	ModelB State: SA   OutB: 0	ModelC State: SA   OutC: 0
#                 8350 Trace: 0000101	Input: 1	ModelA State: SF   OutA: 1	ModelB State: SF   OutB: 1	ModelC State: SF   OutC: 1
#                 8550 Trace: 0000101	Input: 0	ModelA State: SD   OutA: 1	ModelB State: SD   OutB: 1	ModelC State: SD   OutC: 1
#                 8750 Trace: 0000101	Input: 1	ModelA State: SF   OutA: 1	ModelB State: SF   OutB: 1	ModelC State: SF   OutC: 1
#                 8950 Trace: 0000101	Input: 0	ModelA State: SD   OutA: 1	ModelB State: SD   OutB: 1	ModelC State: SD   OutC: 1
#                 9150 Trace: 0000101	Input: 0	ModelA State: SC   OutA: 0	ModelB State: SC   OutB: 0	ModelC State: SC   OutC: 0
#                 9350 Trace: 0000101	Input: 0	ModelA State: SD   OutA: 1	ModelB State: SD   OutB: 1	ModelC State: SD   OutC: 1
#                 9550 Trace: 0000101	Input: 0	ModelA State: SC   OutA: 0	ModelB State: SC   OutB: 0	ModelC State: SC   OutC: 0
# 
# Resetting FSM.
#                 9750 Trace: 0000110	Input: 0	ModelA State: SA   OutA: 0	ModelB State: SA   OutB: 0	ModelC State: SA   OutC: 0
#                 9950 Trace: 0000110	Input: 0	ModelA State: SB   OutA: 1	ModelB State: SB   OutB: 1	ModelC State: SB   OutC: 1
#                10150 Trace: 0000110	Input: 1	ModelA State: SE   OutA: 0	ModelB State: SE   OutB: 0	ModelC State: SE   OutC: 0
#                10350 Trace: 0000110	Input: 1	ModelA State: SC   OutA: 0	ModelB State: SC   OutB: 0	ModelC State: SC   OutC: 0
#                10550 Trace: 0000110	Input: 0	ModelA State: SD   OutA: 1	ModelB State: SD   OutB: 1	ModelC State: SD   OutC: 1
#                10750 Trace: 0000110	Input: 0	ModelA State: SC   OutA: 0	ModelB State: SC   OutB: 0	ModelC State: SC   OutC: 0
#                10950 Trace: 0000110	Input: 0	ModelA State: SD   OutA: 1	ModelB State: SD   OutB: 1	ModelC State: SD   OutC: 1
#                11150 Trace: 0000110	Input: 0	ModelA State: SC   OutA: 0	ModelB State: SC   OutB: 0	ModelC State: SC   OutC: 0
# 
# Resetting FSM.
#                11350 Trace: 0000111	Input: 0	ModelA State: SA   OutA: 0	ModelB State: SA   OutB: 0	ModelC State: SA   OutC: 0
#                11550 Trace: 0000111	Input: 1	ModelA State: SF   OutA: 1	ModelB State: SF   OutB: 1	ModelC State: SF   OutC: 1
#                11750 Trace: 0000111	Input: 1	ModelA State: SA   OutA: 0	ModelB State: SA   OutB: 0	ModelC State: SA   OutC: 0
#                11950 Trace: 0000111	Input: 1	ModelA State: SE   OutA: 0	ModelB State: SE   OutB: 0	ModelC State: SE   OutC: 0
#                12150 Trace: 0000111	Input: 0	ModelA State: SD   OutA: 1	ModelB State: SD   OutB: 1	ModelC State: SD   OutC: 1
#                12350 Trace: 0000111	Input: 0	ModelA State: SC   OutA: 0	ModelB State: SC   OutB: 0	ModelC State: SC   OutC: 0
#                12550 Trace: 0000111	Input: 0	ModelA State: SD   OutA: 1	ModelB State: SD   OutB: 1	ModelC State: SD   OutC: 1
#                12750 Trace: 0000111	Input: 0	ModelA State: SC   OutA: 0	ModelB State: SC   OutB: 0	ModelC State: SC   OutC: 0
# 
# Resetting FSM.
#                12950 Trace: 0001000	Input: 0	ModelA State: SA   OutA: 0	ModelB State: SA   OutB: 0	ModelC State: SA   OutC: 0
#                13150 Trace: 0001000	Input: 0	ModelA State: SB   OutA: 1	ModelB State: SB   OutB: 1	ModelC State: SB   OutC: 1
#                13350 Trace: 0001000	Input: 0	ModelA State: SG   OutA: 0	ModelB State: SG   OutB: 0	ModelC State: SG   OutC: 0
#                13550 Trace: 0001000	Input: 0	ModelA State: SB   OutA: 1	ModelB State: SB   OutB: 1	ModelC State: SB   OutC: 1
#                13750 Trace: 0001000	Input: 1	ModelA State: SE   OutA: 0	ModelB State: SE   OutB: 0	ModelC State: SE   OutC: 0
#                13950 Trace: 0001000	Input: 0	ModelA State: SD   OutA: 1	ModelB State: SD   OutB: 1	ModelC State: SD   OutC: 1
#                14150 Trace: 0001000	Input: 0	ModelA State: SC   OutA: 0	ModelB State: SC   OutB: 0	ModelC State: SC   OutC: 0
#                14350 Trace: 0001000	Input: 0	ModelA State: SD   OutA: 1	ModelB State: SD   OutB: 1	ModelC State: SD   OutC: 1
# 
# Resetting FSM.
#                14550 Trace: 0001001	Input: 0	ModelA State: SA   OutA: 0	ModelB State: SA   OutB: 0	ModelC State: SA   OutC: 0
#                14750 Trace: 0001001	Input: 1	ModelA State: SF   OutA: 1	ModelB State: SF   OutB: 1	ModelC State: SF   OutC: 1
#                14950 Trace: 0001001	Input: 0	ModelA State: SD   OutA: 1	ModelB State: SD   OutB: 1	ModelC State: SD   OutC: 1
#                15150 Trace: 0001001	Input: 0	ModelA State: SC   OutA: 0	ModelB State: SC   OutB: 0	ModelC State: SC   OutC: 0
#                15350 Trace: 0001001	Input: 1	ModelA State: SA   OutA: 0	ModelB State: SA   OutB: 0	ModelC State: SA   OutC: 0
#                15550 Trace: 0001001	Input: 0	ModelA State: SG   OutA: 0	ModelB State: SG   OutB: 0	ModelC State: SG   OutC: 0
#                15750 Trace: 0001001	Input: 0	ModelA State: SB   OutA: 1	ModelB State: SB   OutB: 1	ModelC State: SB   OutC: 1
#                15950 Trace: 0001001	Input: 0	ModelA State: SG   OutA: 0	ModelB State: SG   OutB: 0	ModelC State: SG   OutC: 0
# 
# Resetting FSM.
#                16150 Trace: 0001010	Input: 0	ModelA State: SA   OutA: 0	ModelB State: SA   OutB: 0	ModelC State: SA   OutC: 0
#                16350 Trace: 0001010	Input: 0	ModelA State: SB   OutA: 1	ModelB State: SB   OutB: 1	ModelC State: SB   OutC: 1
#                16550 Trace: 0001010	Input: 1	ModelA State: SE   OutA: 0	ModelB State: SE   OutB: 0	ModelC State: SE   OutC: 0
#                16750 Trace: 0001010	Input: 0	ModelA State: SD   OutA: 1	ModelB State: SD   OutB: 1	ModelC State: SD   OutC: 1
#                16950 Trace: 0001010	Input: 1	ModelA State: SF   OutA: 1	ModelB State: SF   OutB: 1	ModelC State: SF   OutC: 1
#                17150 Trace: 0001010	Input: 0	ModelA State: SD   OutA: 1	ModelB State: SD   OutB: 1	ModelC State: SD   OutC: 1
#                17350 Trace: 0001010	Input: 0	ModelA State: SC   OutA: 0	ModelB State: SC   OutB: 0	ModelC State: SC   OutC: 0
#                17550 Trace: 0001010	Input: 0	ModelA State: SD   OutA: 1	ModelB State: SD   OutB: 1	ModelC State: SD   OutC: 1
# 
# Resetting FSM.
#                17750 Trace: 0001011	Input: 0	ModelA State: SA   OutA: 0	ModelB State: SA   OutB: 0	ModelC State: SA   OutC: 0
#                17950 Trace: 0001011	Input: 1	ModelA State: SF   OutA: 1	ModelB State: SF   OutB: 1	ModelC State: SF   OutC: 1
#                18150 Trace: 0001011	Input: 1	ModelA State: SA   OutA: 0	ModelB State: SA   OutB: 0	ModelC State: SA   OutC: 0
#                18350 Trace: 0001011	Input: 0	ModelA State: SG   OutA: 0	ModelB State: SG   OutB: 0	ModelC State: SG   OutC: 0
#                18550 Trace: 0001011	Input: 1	ModelA State: SF   OutA: 1	ModelB State: SF   OutB: 1	ModelC State: SF   OutC: 1
#                18750 Trace: 0001011	Input: 0	ModelA State: SD   OutA: 1	ModelB State: SD   OutB: 1	ModelC State: SD   OutC: 1
#                18950 Trace: 0001011	Input: 0	ModelA State: SC   OutA: 0	ModelB State: SC   OutB: 0	ModelC State: SC   OutC: 0
#                19150 Trace: 0001011	Input: 0	ModelA State: SD   OutA: 1	ModelB State: SD   OutB: 1	ModelC State: SD   OutC: 1
# 
# Resetting FSM.
#                19350 Trace: 0001100	Input: 0	ModelA State: SA   OutA: 0	ModelB State: SA   OutB: 0	ModelC State: SA   OutC: 0
#                19550 Trace: 0001100	Input: 0	ModelA State: SB   OutA: 1	ModelB State: SB   OutB: 1	ModelC State: SB   OutC: 1
#                19750 Trace: 0001100	Input: 0	ModelA State: SG   OutA: 0	ModelB State: SG   OutB: 0	ModelC State: SG   OutC: 0
#                19950 Trace: 0001100	Input: 1	ModelA State: SF   OutA: 1	ModelB State: SF   OutB: 1	ModelC State: SF   OutC: 1
#                20150 Trace: 0001100	Input: 1	ModelA State: SA   OutA: 0	ModelB State: SA   OutB: 0	ModelC State: SA   OutC: 0
#                20350 Trace: 0001100	Input: 0	ModelA State: SG   OutA: 0	ModelB State: SG   OutB: 0	ModelC State: SG   OutC: 0
#                20550 Trace: 0001100	Input: 0	ModelA State: SB   OutA: 1	ModelB State: SB   OutB: 1	ModelC State: SB   OutC: 1
#                20750 Trace: 0001100	Input: 0	ModelA State: SG   OutA: 0	ModelB State: SG   OutB: 0	ModelC State: SG   OutC: 0
# 
# Resetting FSM.
#                20950 Trace: 0001101	Input: 0	ModelA State: SA   OutA: 0	ModelB State: SA   OutB: 0	ModelC State: SA   OutC: 0
#                21150 Trace: 0001101	Input: 1	ModelA State: SF   OutA: 1	ModelB State: SF   OutB: 1	ModelC State: SF   OutC: 1
#                21350 Trace: 0001101	Input: 0	ModelA State: SD   OutA: 1	ModelB State: SD   OutB: 1	ModelC State: SD   OutC: 1
#                21550 Trace: 0001101	Input: 1	ModelA State: SF   OutA: 1	ModelB State: SF   OutB: 1	ModelC State: SF   OutC: 1
#                21750 Trace: 0001101	Input: 1	ModelA State: SA   OutA: 0	ModelB State: SA   OutB: 0	ModelC State: SA   OutC: 0
#                21950 Trace: 0001101	Input: 0	ModelA State: SG   OutA: 0	ModelB State: SG   OutB: 0	ModelC State: SG   OutC: 0
#                22150 Trace: 0001101	Input: 0	ModelA State: SB   OutA: 1	ModelB State: SB   OutB: 1	ModelC State: SB   OutC: 1
#                22350 Trace: 0001101	Input: 0	ModelA State: SG   OutA: 0	ModelB State: SG   OutB: 0	ModelC State: SG   OutC: 0
# 
# Resetting FSM.
#                22550 Trace: 0001110	Input: 0	ModelA State: SA   OutA: 0	ModelB State: SA   OutB: 0	ModelC State: SA   OutC: 0
#                22750 Trace: 0001110	Input: 0	ModelA State: SB   OutA: 1	ModelB State: SB   OutB: 1	ModelC State: SB   OutC: 1
#                22950 Trace: 0001110	Input: 1	ModelA State: SE   OutA: 0	ModelB State: SE   OutB: 0	ModelC State: SE   OutC: 0
#                23150 Trace: 0001110	Input: 1	ModelA State: SC   OutA: 0	ModelB State: SC   OutB: 0	ModelC State: SC   OutC: 0
#                23350 Trace: 0001110	Input: 1	ModelA State: SA   OutA: 0	ModelB State: SA   OutB: 0	ModelC State: SA   OutC: 0
#                23550 Trace: 0001110	Input: 0	ModelA State: SG   OutA: 0	ModelB State: SG   OutB: 0	ModelC State: SG   OutC: 0
#                23750 Trace: 0001110	Input: 0	ModelA State: SB   OutA: 1	ModelB State: SB   OutB: 1	ModelC State: SB   OutC: 1
#                23950 Trace: 0001110	Input: 0	ModelA State: SG   OutA: 0	ModelB State: SG   OutB: 0	ModelC State: SG   OutC: 0
# 
# Resetting FSM.
#                24150 Trace: 0001111	Input: 0	ModelA State: SA   OutA: 0	ModelB State: SA   OutB: 0	ModelC State: SA   OutC: 0
#                24350 Trace: 0001111	Input: 1	ModelA State: SF   OutA: 1	ModelB State: SF   OutB: 1	ModelC State: SF   OutC: 1
#                24550 Trace: 0001111	Input: 1	ModelA State: SA   OutA: 0	ModelB State: SA   OutB: 0	ModelC State: SA   OutC: 0
#                24750 Trace: 0001111	Input: 1	ModelA State: SE   OutA: 0	ModelB State: SE   OutB: 0	ModelC State: SE   OutC: 0
#                24950 Trace: 0001111	Input: 1	ModelA State: SC   OutA: 0	ModelB State: SC   OutB: 0	ModelC State: SC   OutC: 0
#                25150 Trace: 0001111	Input: 0	ModelA State: SD   OutA: 1	ModelB State: SD   OutB: 1	ModelC State: SD   OutC: 1
#                25350 Trace: 0001111	Input: 0	ModelA State: SC   OutA: 0	ModelB State: SC   OutB: 0	ModelC State: SC   OutC: 0
#                25550 Trace: 0001111	Input: 0	ModelA State: SD   OutA: 1	ModelB State: SD   OutB: 1	ModelC State: SD   OutC: 1
# 
# Resetting FSM.
#                25750 Trace: 0000000	Input: 0	ModelA State: SA   OutA: 0	ModelB State: SA   OutB: 0	ModelC State: SA   OutC: 0
#                25950 Trace: 0000000	Input: 0	ModelA State: SB   OutA: 1	ModelB State: SB   OutB: 1	ModelC State: SB   OutC: 1
#                26150 Trace: 0000000	Input: 0	ModelA State: SG   OutA: 0	ModelB State: SG   OutB: 0	ModelC State: SG   OutC: 0
#                26350 Trace: 0000000	Input: 0	ModelA State: SB   OutA: 1	ModelB State: SB   OutB: 1	ModelC State: SB   OutC: 1
#                26550 Trace: 0000000	Input: 0	ModelA State: SG   OutA: 0	ModelB State: SG   OutB: 0	ModelC State: SG   OutC: 0
#                26750 Trace: 0000000	Input: 0	ModelA State: SB   OutA: 1	ModelB State: SB   OutB: 1	ModelC State: SB   OutC: 1
#                26950 Trace: 0000000	Input: 0	ModelA State: SG   OutA: 0	ModelB State: SG   OutB: 0	ModelC State: SG   OutC: 0
#                27150 Trace: 0000000	Input: 0	ModelA State: SB   OutA: 1	ModelB State: SB   OutB: 1	ModelC State: SB   OutC: 1
# 
# Resetting FSM.
#                27350 Trace: 0000001	Input: 0	ModelA State: SA   OutA: 0	ModelB State: SA   OutB: 0	ModelC State: SA   OutC: 0
#                27550 Trace: 0000001	Input: 1	ModelA State: SF   OutA: 1	ModelB State: SF   OutB: 1	ModelC State: SF   OutC: 1
#                27750 Trace: 0000001	Input: 0	ModelA State: SD   OutA: 1	ModelB State: SD   OutB: 1	ModelC State: SD   OutC: 1
#                27950 Trace: 0000001	Input: 0	ModelA State: SC   OutA: 0	ModelB State: SC   OutB: 0	ModelC State: SC   OutC: 0
#                28150 Trace: 0000001	Input: 0	ModelA State: SD   OutA: 1	ModelB State: SD   OutB: 1	ModelC State: SD   OutC: 1
#                28350 Trace: 0000001	Input: 0	ModelA State: SC   OutA: 0	ModelB State: SC   OutB: 0	ModelC State: SC   OutC: 0
#                28550 Trace: 0000001	Input: 0	ModelA State: SD   OutA: 1	ModelB State: SD   OutB: 1	ModelC State: SD   OutC: 1
#                28750 Trace: 0000001	Input: 0	ModelA State: SC   OutA: 0	ModelB State: SC   OutB: 0	ModelC State: SC   OutC: 0
# 
# Resetting FSM.
#                28950 Trace: 0000010	Input: 0	ModelA State: SA   OutA: 0	ModelB State: SA   OutB: 0	ModelC State: SA   OutC: 0
#                29150 Trace: 0000010	Input: 0	ModelA State: SB   OutA: 1	ModelB State: SB   OutB: 1	ModelC State: SB   OutC: 1
#                29350 Trace: 0000010	Input: 1	ModelA State: SE   OutA: 0	ModelB State: SE   OutB: 0	ModelC State: SE   OutC: 0
#                29550 Trace: 0000010	Input: 0	ModelA State: SD   OutA: 1	ModelB State: SD   OutB: 1	ModelC State: SD   OutC: 1
#                29750 Trace: 0000010	Input: 0	ModelA State: SC   OutA: 0	ModelB State: SC   OutB: 0	ModelC State: SC   OutC: 0
#                29950 Trace: 0000010	Input: 0	ModelA State: SD   OutA: 1	ModelB State: SD   OutB: 1	ModelC State: SD   OutC: 1
#                30150 Trace: 0000010	Input: 0	ModelA State: SC   OutA: 0	ModelB State: SC   OutB: 0	ModelC State: SC   OutC: 0
#                30350 Trace: 0000010	Input: 0	ModelA State: SD   OutA: 1	ModelB State: SD   OutB: 1	ModelC State: SD   OutC: 1
# 
# Resetting FSM.
#                30550 Trace: 0000011	Input: 0	ModelA State: SA   OutA: 0	ModelB State: SA   OutB: 0	ModelC State: SA   OutC: 0
#                30750 Trace: 0000011	Input: 1	ModelA State: SF   OutA: 1	ModelB State: SF   OutB: 1	ModelC State: SF   OutC: 1
#                30950 Trace: 0000011	Input: 1	ModelA State: SA   OutA: 0	ModelB State: SA   OutB: 0	ModelC State: SA   OutC: 0
#                31150 Trace: 0000011	Input: 0	ModelA State: SG   OutA: 0	ModelB State: SG   OutB: 0	ModelC State: SG   OutC: 0
#                31350 Trace: 0000011	Input: 0	ModelA State: SB   OutA: 1	ModelB State: SB   OutB: 1	ModelC State: SB   OutC: 1
#                31550 Trace: 0000011	Input: 0	ModelA State: SG   OutA: 0	ModelB State: SG   OutB: 0	ModelC State: SG   OutC: 0
#                31750 Trace: 0000011	Input: 0	ModelA State: SB   OutA: 1	ModelB State: SB   OutB: 1	ModelC State: SB   OutC: 1
#                31950 Trace: 0000011	Input: 0	ModelA State: SG   OutA: 0	ModelB State: SG   OutB: 0	ModelC State: SG   OutC: 0
# 
# Resetting FSM.
#                32150 Trace: 0000100	Input: 0	ModelA State: SA   OutA: 0	ModelB State: SA   OutB: 0	ModelC State: SA   OutC: 0
#                32350 Trace: 0000100	Input: 0	ModelA State: SB   OutA: 1	ModelB State: SB   OutB: 1	ModelC State: SB   OutC: 1
#                32550 Trace: 0000100	Input: 0	ModelA State: SG   OutA: 0	ModelB State: SG   OutB: 0	ModelC State: SG   OutC: 0
#                32750 Trace: 0000100	Input: 1	ModelA State: SF   OutA: 1	ModelB State: SF   OutB: 1	ModelC State: SF   OutC: 1
#                32950 Trace: 0000100	Input: 0	ModelA State: SD   OutA: 1	ModelB State: SD   OutB: 1	ModelC State: SD   OutC: 1
#                33150 Trace: 0000100	Input: 0	ModelA State: SC   OutA: 0	ModelB State: SC   OutB: 0	ModelC State: SC   OutC: 0
#                33350 Trace: 0000100	Input: 0	ModelA State: SD   OutA: 1	ModelB State: SD   OutB: 1	ModelC State: SD   OutC: 1
#                33550 Trace: 0000100	Input: 0	ModelA State: SC   OutA: 0	ModelB State: SC   OutB: 0	ModelC State: SC   OutC: 0
# 
# Resetting FSM.
#                33750 Trace: 0000101	Input: 0	ModelA State: SA   OutA: 0	ModelB State: SA   OutB: 0	ModelC State: SA   OutC: 0
#                33950 Trace: 0000101	Input: 1	ModelA State: SF   OutA: 1	ModelB State: SF   OutB: 1	ModelC State: SF   OutC: 1
#                34150 Trace: 0000101	Input: 0	ModelA State: SD   OutA: 1	ModelB State: SD   OutB: 1	ModelC State: SD   OutC: 1
#                34350 Trace: 0000101	Input: 1	ModelA State: SF   OutA: 1	ModelB State: SF   OutB: 1	ModelC State: SF   OutC: 1
#                34550 Trace: 0000101	Input: 0	ModelA State: SD   OutA: 1	ModelB State: SD   OutB: 1	ModelC State: SD   OutC: 1
#                34750 Trace: 0000101	Input: 0	ModelA State: SC   OutA: 0	ModelB State: SC   OutB: 0	ModelC State: SC   OutC: 0
#                34950 Trace: 0000101	Input: 0	ModelA State: SD   OutA: 1	ModelB State: SD   OutB: 1	ModelC State: SD   OutC: 1
#                35150 Trace: 0000101	Input: 0	ModelA State: SC   OutA: 0	ModelB State: SC   OutB: 0	ModelC State: SC   OutC: 0
# 
# Resetting FSM.
#                35350 Trace: 0000110	Input: 0	ModelA State: SA   OutA: 0	ModelB State: SA   OutB: 0	ModelC State: SA   OutC: 0
#                35550 Trace: 0000110	Input: 0	ModelA State: SB   OutA: 1	ModelB State: SB   OutB: 1	ModelC State: SB   OutC: 1
#                35750 Trace: 0000110	Input: 1	ModelA State: SE   OutA: 0	ModelB State: SE   OutB: 0	ModelC State: SE   OutC: 0
#                35950 Trace: 0000110	Input: 1	ModelA State: SC   OutA: 0	ModelB State: SC   OutB: 0	ModelC State: SC   OutC: 0
#                36150 Trace: 0000110	Input: 0	ModelA State: SD   OutA: 1	ModelB State: SD   OutB: 1	ModelC State: SD   OutC: 1
#                36350 Trace: 0000110	Input: 0	ModelA State: SC   OutA: 0	ModelB State: SC   OutB: 0	ModelC State: SC   OutC: 0
#                36550 Trace: 0000110	Input: 0	ModelA State: SD   OutA: 1	ModelB State: SD   OutB: 1	ModelC State: SD   OutC: 1
#                36750 Trace: 0000110	Input: 0	ModelA State: SC   OutA: 0	ModelB State: SC   OutB: 0	ModelC State: SC   OutC: 0
# 
# Resetting FSM.
#                36950 Trace: 0000111	Input: 0	ModelA State: SA   OutA: 0	ModelB State: SA   OutB: 0	ModelC State: SA   OutC: 0
#                37150 Trace: 0000111	Input: 1	ModelA State: SF   OutA: 1	ModelB State: SF   OutB: 1	ModelC State: SF   OutC: 1
#                37350 Trace: 0000111	Input: 1	ModelA State: SA   OutA: 0	ModelB State: SA   OutB: 0	ModelC State: SA   OutC: 0
#                37550 Trace: 0000111	Input: 1	ModelA State: SE   OutA: 0	ModelB State: SE   OutB: 0	ModelC State: SE   OutC: 0
#                37750 Trace: 0000111	Input: 0	ModelA State: SD   OutA: 1	ModelB State: SD   OutB: 1	ModelC State: SD   OutC: 1
#                37950 Trace: 0000111	Input: 0	ModelA State: SC   OutA: 0	ModelB State: SC   OutB: 0	ModelC State: SC   OutC: 0
#                38150 Trace: 0000111	Input: 0	ModelA State: SD   OutA: 1	ModelB State: SD   OutB: 1	ModelC State: SD   OutC: 1
#                38350 Trace: 0000111	Input: 0	ModelA State: SC   OutA: 0	ModelB State: SC   OutB: 0	ModelC State: SC   OutC: 0
# 
# Resetting FSM.
#                38550 Trace: 0001000	Input: 0	ModelA State: SA   OutA: 0	ModelB State: SA   OutB: 0	ModelC State: SA   OutC: 0
