proj3/transcript
# vsim -c top 
# Start time: 12:42:17 on Nov 28,2021
# Loading sv_std.std
# Loading work.top
# Loading work.gray_adder
# Loading work.gray2bin
# Loading work.CLA_adder
# Loading work.bin2gray
#                     0 result=xxxxx, in_A=xxxx, in_B=xxxx
#                     1 result=00000, in_A=0000, in_B=0000
#                     2 result=00011, in_A=0001, in_B=0000
#                     3 result=00101, in_A=0010, in_B=0000
#                     4 result=00110, in_A=0011, in_B=0000
#                     5 result=00000, in_A=0000, in_B=0000
#                     6 result=00011, in_A=0000, in_B=0001
#                     7 result=00101, in_A=0000, in_B=0010
#                     8 result=00110, in_A=0000, in_B=0011
#                     9 result=00000, in_A=0000, in_B=0000
#                    10 result=11000, in_A=0001, in_B=0100
#                    11 result=00111, in_A=0010, in_B=1000
#                    12 result=11110, in_A=0011, in_B=1100
#                    13 result=01001, in_A=0100, in_B=0000
#                    14 result=00001, in_A=1000, in_B=0001
#                    15 result=11101, in_A=1100, in_B=0010
#                    16 result=00010, in_A=1000, in_B=0011
# ** Note: $finish    : prob3_tb.sv(28)
#    Time: 26 ns  Iteration: 0  Instance: /top
# End time: 12:42:20 on Nov 28,2021, Elapsed time: 0:00:03
# Errors: 0, Warnings: 0
