proj3/DC_p3/DC_task1/output.vcd
$date
	Tue Nov 16 15:27:50 2021
$end
$version
	QuestaSim Version 10.6b
$end
$timescale
	10ps
$end

$scope module gray_adder_tb $end
$var reg 5 ! x [4:0] $end

$scope module adder $end
$var wire 1 " x [4] $end
$var wire 1 # x [3] $end
$var wire 1 $ x [2] $end
$var wire 1 % x [1] $end
$var wire 1 & x [0] $end
$var wire 1 ' a [3] $end
$var wire 1 ( a [2] $end
$var wire 1 ) a [1] $end
$var wire 1 * a [0] $end
$var wire 1 + b [3] $end
$var wire 1 , b [2] $end
$var wire 1 - b [1] $end
$var wire 1 . b [0] $end
$var wire 1 / n3 $end
$var wire 1 0 n4 $end
$var wire 1 1 n5 $end
$var wire 1 2 n6 $end
$var wire 1 3 n7 $end
$var wire 1 4 n8 $end
$var wire 1 5 n9 $end
$var wire 1 6 n10 $end
$var wire 1 7 n11 $end
$var wire 1 8 n12 $end
$var wire 1 9 n13 $end
$var wire 1 : n14 $end
$var wire 1 ; n15 $end
$var wire 1 < n16 $end
$var wire 1 = a_bin [3] $end
$var wire 1 > a_bin [2] $end
$var wire 1 ? a_bin [1] $end
$var wire 1 @ a_bin [0] $end
$var wire 1 A b_bin [3] $end
$var wire 1 B b_bin [2] $end
$var wire 1 C b_bin [1] $end
$var wire 1 D b_bin [0] $end
$var wire 1 E sum [4] $end
$var wire 1 F sum [3] $end
$var wire 1 G sum [2] $end
$var wire 1 H sum [1] $end
$var wire 1 I sum [0] $end

$scope module convert_a $end
$var wire 1 J g[3] $end
$upscope $end

$scope module convert_b $end
$var wire 1 K g[3] $end
$upscope $end

$scope module convert_x $end
$var wire 1 L b[4] $end
$upscope $end
$upscope $end
$upscope $end
$enddefinitions $end
#0
$dumpvars
bx !
x/
x0
x1
x2
x3
x4
x5
x6
x7
x8
x9
x:
x;
x<
x@
x?
x>
x=
xD
xC
xB
xA
xI
xH
xG
xF
xE
xJ
xK
xL
x.
x-
x,
x+
x*
x)
x(
x'
x&
x%
x$
x#
x"
$end
#100
0.
0-
0,
0+
0*
0)
0(
0'
0J
0K
0A
0=
#108
10
#110
11
#115
0>
0B
#116
13
#118
0E
0L
0"
b0xxxx !
#125
16
#130
0?
0C
#131
17
#134
05
#138
19
#140
1:
#143
1/
#146
1<
#148
04
0@
0D
#152
02
#157
18
#163
0I
#165
0G
#166
0;
#169
0F
#181
0H
#184
0$
b0x0xx !
#187
0#
b0xx !
#196
0&
b0x0 !
#199
0%
b0 !
#200
1*
#216
1@
#234
1I
#252
1&
b1 !
#300
0*
1)
#315
0@
#318
1?
#327
09
#333
0<
0I
#336
1@
#351
1H
0&
b0 !
#354
1I
#369
1%
b10 !
#400
1*
#415
0@
#433
0I
#451
1&
b11 !
#500
0*
0)
#516
1@
#518
0?
#526
19
#534
1<
1I
#536
0@
#551
0H
#554
0I
#569
0%
b1 !
#572
0&
b0 !
#600
1.
#616
1D
#632
1I
#650
1&
b1 !
#700
0.
1-
#715
0D
#718
1C
#730
0I
#735
0<
#736
1D
#748
0&
b0 !
#752
1I
#753
1H
#771
1%
b10 !
#800
1.
#815
0D
#830
0I
#848
1&
b11 !
#900
0.
0-
#916
1D
#918
0C
#932
1I
#936
1<
0D
#950
0&
b10 !
#951
0I
#953
0H
#971
0%
b0 !
#1000
1,
1*
#1016
1B
1@
#1032
1C
#1033
07
#1034
1I
#1049
1G
0<
#1050
1D
#1052
1&
b1 !
#1057
08
#1065
1;
0I
1%
b11 !
#1067
1$
b111 !
#1076
0:
#1083
0&
b110 !
#1086
14
#1095
06
#1100
0,
1+
0*
1)
1K
1A
#1103
15
0G
#1115
0/
0@
#1117
03
#1118
0%
1?
b100 !
#1121
0$
b0 !
#1123
12
#1124
18
#1127
09
#1132
01
#1133
0;
1I
#1134
1<
#1136
1@
#1142
1E
1L
1"
b10000 !
#1143
08
#1151
1;
1&
b10001 !
#1154
0I
#1158
1#
b11001 !
#1167
1H
#1185
1%
b11011 !
#1200
1,
1*
#1215
0B
0@
#1224
18
#1225
16
#1230
0C
#1233
0;
17
1I
#1234
05
#1240
1:
#1243
1/
#1247
0<
#1248
04
0D
#1251
0&
b11010 !
#1252
02
#1263
11
0I
#1270
1F
#1271
0E
0L
0"
b1010 !
#1281
1&
b1011 !
#1286
1$
b1111 !
#1300
0,
0+
0*
0)
1(
0K
0A
#1316
1@
1>
#1318
13
#1331
07
#1333
0F
#1334
1I
#1347
1G
#1351
0#
b111 !
#1352
0&
b110 !
#1362
0%
b100 !
#1400
1.
0(
1'
1J
1=
#1409
00
#1415
03
#1416
1D
#1423
08
#1431
1;
0I
1F
#1435
14
#1446
0/
0H
0$
b0 !
#1449
1#
b1000 !
#1452
0G
#1454
12
#1458
1E
1L
1"
b11000 !
#1470
1$
b11100 !
#1471
0F
#1486
0$
b11000 !
#1500
0.
1-
1(
#1515
0D
0>
#1518
1C
#1525
18
#1526
0:
1/
#1530
0?
#1531
1I
17
#1534
0;
#1535
02
#1536
1D
#1537
0E
0L
0"
b1000 !
#1538
19
#1543
08
#1546
1:
#1547
1G
#1548
0@
#1549
1&
b1001 !
#1550
1H
#1551
1;
#1552
0#
b1 !
#1553
1F
#1554
04
#1557
18
#1562
0:
#1565
0&
b0 !
#1566
0;
0H
#1571
0G
1#
b1000 !
#1572
14
#1578
1:
#1582
1H
1&
b1001 !
#1586
04
#1589
1$
b1101 !
#1597
0&
b1100 !
#1600
1%
b1110 !
1.
0(
#1615
0D
#1616
1>
#1630
0I
#1631
07
#1632
1?
#1641
09
0:
#1647
1G
#1648
1<
1&
b1111 !
#1650
1@
#1651
14
#1662
0/
0%
b1101 !
#1665
0H
0$
b1001 !
#1668
0G
1I
#1670
12
#1674
1E
1L
1"
b11001 !
#1686
1$
b11101 !
#1687
0F
#1702
0$
b11001 !
