proj3/DC_p3/DC_task1/vsim1.vcd
$date
	Tue Nov 16 15:06:11 2021
$end
$version
	QuestaSim Version 10.6b
$end
$timescale
	10ps
$end
$scope module gray_adder_tb $end
$var reg 4 ! a [3:0] $end
$var reg 4 " b [3:0] $end
$var reg 5 # x [4:0] $end
$upscope $end
$enddefinitions $end
#0
bx !
bx "
bx #
#100
b0 !
b0 "
#118
bx #
#184
bx0xx #
#187
bx #
#196
bx0 #
#199
b0 #
#200
b1 !
#252
b1 #
#300
b10 !
#351
b0 #
#369
b10 #
#400
b11 !
#451
b11 #
#500
b0 !
#569
b1 #
#572
b0 #
#600
b1 "
#650
b1 #
#700
b10 "
#748
b0 #
#771
b10 #
#800
b11 "
#848
b11 #
#900
b0 "
#950
b10 #
#971
b0 #
#1000
b1 !
b100 "
#1052
b1 #
#1065
b11 #
#1067
b111 #
#1083
b110 #
#1100
b10 !
b1000 "
#1118
b100 #
#1121
b0 #
#1142
b10000 #
#1151
b10001 #
#1158
b11001 #
#1185
b11011 #
#1200
b11 !
b1100 "
#1251
b11010 #
#1271
b1010 #
#1281
b1011 #
#1286
b1111 #
#1300
b100 !
b0 "
#1351
b111 #
#1352
b110 #
#1362
b100 #
#1400
b1000 !
b1 "
#1446
b0 #
#1449
b1000 #
#1458
b11000 #
#1470
b11100 #
#1486
b11000 #
#1500
b1100 !
b10 "
#1537
b1000 #
#1549
b1001 #
#1552
b1 #
#1565
b0 #
#1571
b1000 #
#1582
b1001 #
#1589
b1101 #
#1597
b1100 #
#1600
b1110 #
b1000 !
b11 "
#1648
b1111 #
#1662
b1101 #
#1665
b1001 #
#1674
b11001 #
#1686
b11101 #
#1702
b11001 #
